<?xml version="1.0" encoding="UTF-8" standalone="no"?>
<svg
   contentStyleType="text/css"
   height="777px"
   preserveAspectRatio="none"
   style="width:769px;height:777px;background:#FFFFFF;"
   version="1.1"
   viewBox="0 0 769 777"
   width="769px"
   zoomAndPan="magnify"
   id="svg294"
   sodipodi:docname="tip_types_t.svg"
   inkscape:export-filename="tip_types_t.png"
   inkscape:export-xdpi="100"
   inkscape:export-ydpi="100"
   inkscape:version="1.2.2 (b0a8486541, 2022-12-01)"
   xmlns:inkscape="http://www.inkscape.org/namespaces/inkscape"
   xmlns:sodipodi="http://sodipodi.sourceforge.net/DTD/sodipodi-0.dtd"
   xmlns="http://www.w3.org/2000/svg"
   xmlns:svg="http://www.w3.org/2000/svg">
  <sodipodi:namedview
     id="namedview296"
     pagecolor="#ffffff"
     bordercolor="#666666"
     borderopacity="1.0"
     inkscape:showpageshadow="2"
     inkscape:pageopacity="0.0"
     inkscape:pagecheckerboard="0"
     inkscape:deskcolor="#d1d1d1"
     showgrid="false"
     inkscape:zoom="1.1220745"
     inkscape:cx="327.96396"
     inkscape:cy="391.68521"
     inkscape:window-width="1920"
     inkscape:window-height="1135"
     inkscape:window-x="0"
     inkscape:window-y="0"
     inkscape:window-maximized="1"
     inkscape:current-layer="g292" />
  <defs
     id="defs2" />
  <g
     id="g292">
    <!--class tip_types_t-->
    <g
       id="elem_tip_types_t">
      <rect
         codeLine="5"
         fill="#F1F1F1"
         height="145.7813"
         id="tip_types_t"
         rx="2.5"
         ry="2.5"
         style="stroke:#181818;stroke-width:0.5;"
         width="335"
         x="33"
         y="7" />
      <ellipse
         cx="154.75"
         cy="23"
         fill="#ADD1B2"
         rx="11"
         ry="11"
         style="stroke:#181818;stroke-width:1.0;"
         id="ellipse5" />
      <path
         d="M157.0938,18.6719 C156.1563,18.2344 155.5625,18.0938 154.6875,18.0938 C152.0625,18.0938 150.0625,20.1719 150.0625,22.8906 L150.0625,24.0156 C150.0625,26.5938 152.1719,28.4844 155.0625,28.4844 C156.2813,28.4844 157.4375,28.1875 158.1875,27.6406 C158.7656,27.2344 159.0938,26.7813 159.0938,26.3906 C159.0938,25.9375 158.7031,25.5469 158.2344,25.5469 C158.0156,25.5469 157.8125,25.625 157.625,25.8125 C157.1719,26.2969 157.1719,26.2969 156.9844,26.3906 C156.5625,26.6563 155.875,26.7813 155.1094,26.7813 C153.0625,26.7813 151.7656,25.6875 151.7656,23.9844 L151.7656,22.8906 C151.7656,21.1094 153.0156,19.7969 154.75,19.7969 C155.3281,19.7969 155.9375,19.9531 156.4063,20.2031 C156.8906,20.4844 157.0625,20.7031 157.1563,21.1094 C157.2188,21.5156 157.25,21.6406 157.3906,21.7656 C157.5313,21.9063 157.7656,22.0156 157.9844,22.0156 C158.25,22.0156 158.5156,21.875 158.6875,21.6563 C158.7969,21.5 158.8281,21.3125 158.8281,20.8906 L158.8281,19.4688 C158.8281,19.0313 158.8125,18.9063 158.7188,18.75 C158.5625,18.4844 158.2813,18.3438 157.9844,18.3438 C157.6875,18.3438 157.4844,18.4375 157.2656,18.75 L157.0938,18.6719 Z "
         fill="#000000"
         id="path7" />
      <text
         fill="#000000"
         font-family="Cousine"
         font-size="14"
         lengthAdjust="spacing"
         textLength="83"
         x="175.25"
         y="27.8467"
         id="text9">tip_types_t</text>
      <line
         style="stroke:#181818;stroke-width:0.5;"
         x1="34"
         x2="367"
         y1="39"
         y2="39"
         id="line11" />
      <ellipse
         cx="44"
         cy="52.6484"
         fill="none"
         rx="3"
         ry="3"
         style="stroke:#038048;stroke-width:1.0;"
         id="ellipse13" />
      <text
         fill="#000000"
         font-family="Cousine"
         font-size="14"
         lengthAdjust="spacing"
         textLength="248"
         x="53"
         y="55.9951"
         id="text15">string[]                  common_strings;</text>
      <ellipse
         cx="44"
         cy="68.9453"
         fill="none"
         rx="3"
         ry="3"
         style="stroke:#038048;stroke-width:1.0;"
         id="ellipse17" />
      <text
         fill="#000000"
         font-family="Cousine"
         font-size="14"
         lengthAdjust="spacing"
         textLength="309"
         x="53"
         y="72.292"
         id="text19">map&lt;string, tip_field_t&gt;  type_definitions;</text>
      <ellipse
         cx="44"
         cy="85.2422"
         fill="none"
         rx="3"
         ry="3"
         style="stroke:#038048;stroke-width:1.0;"
         id="ellipse21" />
      <text
         fill="#000000"
         font-family="Cousine"
         font-size="14"
         lengthAdjust="spacing"
         textLength="302"
         x="53"
         y="88.5889"
         id="text23">map&lt;string, tip_enum_t&gt;   enumerations;</text>
      <ellipse
         cx="44"
         cy="101.5391"
         fill="none"
         rx="3"
         ry="3"
         style="stroke:#038048;stroke-width:1.0;"
         id="ellipse25" />
      <text
         fill="#000000"
         font-family="Cousine"
         font-size="14"
         lengthAdjust="spacing"
         textLength="271"
         x="53"
         y="104.8857"
         id="text27">map&lt;string, tip_struct_t&gt; structures;</text>
      <ellipse
         cx="44"
         cy="117.8359"
         fill="none"
         rx="3"
         ry="3"
         style="stroke:#038048;stroke-width:1.0;"
         id="ellipse29" />
      <text
         fill="#000000"
         font-family="Cousine"
         font-size="14"
         lengthAdjust="spacing"
         textLength="278"
         x="53"
         y="121.1826"
         id="text31">map&lt;string, tip_struct_t&gt; exceptions;</text>
      <ellipse
         cx="44"
         cy="134.1328"
         fill="none"
         rx="3"
         ry="3"
         style="stroke:#038048;stroke-width:1.0;"
         id="ellipse33" />
      <text
         fill="#000000"
         font-family="Cousine"
         font-size="14"
         lengthAdjust="spacing"
         textLength="224"
         x="53"
         y="137.4795"
         id="text35">tip_function_t[]          functions;</text>
      <line
         style="stroke:#181818;stroke-width:0.5;"
         x1="34"
         x2="367"
         y1="144.7813"
         y2="144.7813"
         id="line37" />
    </g>
    <!--class tip_field_t-->
    <g
       id="elem_tip_field_t">
      <rect
         codeLine="14"
         fill="#F1F1F1"
         height="243.5625"
         id="tip_field_t"
         rx="2.5"
         ry="2.5"
         style="stroke:#181818;stroke-width:0.5;"
         width="387"
         x="7"
         y="402" />
      <ellipse
         cx="159.25"
         cy="418"
         fill="#ADD1B2"
         rx="11"
         ry="11"
         style="stroke:#181818;stroke-width:1.0;"
         id="ellipse41" />
      <path
         d="M161.5938,413.6719 C160.6563,413.2344 160.0625,413.0938 159.1875,413.0938 C156.5625,413.0938 154.5625,415.1719 154.5625,417.8906 L154.5625,419.0156 C154.5625,421.5938 156.6719,423.4844 159.5625,423.4844 C160.7813,423.4844 161.9375,423.1875 162.6875,422.6406 C163.2656,422.2344 163.5938,421.7813 163.5938,421.3906 C163.5938,420.9375 163.2031,420.5469 162.7344,420.5469 C162.5156,420.5469 162.3125,420.625 162.125,420.8125 C161.6719,421.2969 161.6719,421.2969 161.4844,421.3906 C161.0625,421.6563 160.375,421.7813 159.6094,421.7813 C157.5625,421.7813 156.2656,420.6875 156.2656,418.9844 L156.2656,417.8906 C156.2656,416.1094 157.5156,414.7969 159.25,414.7969 C159.8281,414.7969 160.4375,414.9531 160.9063,415.2031 C161.3906,415.4844 161.5625,415.7031 161.6563,416.1094 C161.7188,416.5156 161.75,416.6406 161.8906,416.7656 C162.0313,416.9063 162.2656,417.0156 162.4844,417.0156 C162.75,417.0156 163.0156,416.875 163.1875,416.6563 C163.2969,416.5 163.3281,416.3125 163.3281,415.8906 L163.3281,414.4688 C163.3281,414.0313 163.3125,413.9063 163.2188,413.75 C163.0625,413.4844 162.7813,413.3438 162.4844,413.3438 C162.1875,413.3438 161.9844,413.4375 161.7656,413.75 L161.5938,413.6719 Z "
         fill="#000000"
         id="path43" />
      <text
         fill="#000000"
         font-family="Cousine"
         font-size="14"
         lengthAdjust="spacing"
         textLength="74"
         x="179.75"
         y="422.8467"
         id="text45">tip_field_t</text>
      <line
         style="stroke:#181818;stroke-width:0.5;"
         x1="8"
         x2="393"
         y1="434"
         y2="434"
         id="line47" />
      <ellipse
         cx="18"
         cy="447.6484"
         fill="none"
         rx="3"
         ry="3"
         style="stroke:#038048;stroke-width:1.0;"
         id="ellipse49" />
      <text
         fill="#000000"
         font-family="Cousine"
         font-size="14"
         lengthAdjust="spacing"
         textLength="212"
         x="27"
         y="450.9951"
         id="text51">bool               _is_set.identifier</text>
      <ellipse
         cx="18"
         cy="463.9453"
         fill="none"
         rx="3"
         ry="3"
         style="stroke:#038048;stroke-width:1.0;"
         id="ellipse53" />
      <text
         fill="#000000"
         font-family="Cousine"
         font-size="14"
         lengthAdjust="spacing"
         textLength="162"
         x="27"
         y="467.292"
         id="text55">hf_data_t          hf_data</text>
      <ellipse
         cx="18"
         cy="480.2422"
         fill="none"
         rx="3"
         ry="3"
         style="stroke:#038048;stroke-width:1.0;"
         id="ellipse57" />
      <text
         fill="#000000"
         font-family="Cousine"
         font-size="14"
         lengthAdjust="spacing"
         textLength="189"
         x="27"
         y="483.5889"
         id="text59">gboolean           mandatory</text>
      <ellipse
         cx="18"
         cy="496.5391"
         fill="none"
         rx="3"
         ry="3"
         style="stroke:#038048;stroke-width:1.0;"
         id="ellipse61" />
      <text
         fill="#000000"
         font-family="Cousine"
         font-size="14"
         lengthAdjust="spacing"
         textLength="184"
         x="27"
         y="499.8857"
         id="text63">bool               _is_set.index</text>
      <ellipse
         cx="18"
         cy="512.8359"
         fill="none"
         rx="3"
         ry="3"
         style="stroke:#038048;stroke-width:1.0;"
         id="ellipse65" />
      <text
         fill="#000000"
         font-family="Cousine"
         font-size="14"
         lengthAdjust="spacing"
         textLength="139"
         x="27"
         y="516.1826"
         id="text67">int16_t            index</text>
      <ellipse
         cx="18"
         cy="529.1328"
         fill="none"
         rx="3"
         ry="3"
         style="stroke:#038048;stroke-width:1.0;"
         id="ellipse69" />
      <text
         fill="#000000"
         font-family="Cousine"
         font-size="14"
         lengthAdjust="spacing"
         textLength="179"
         x="27"
         y="532.4795"
         id="text71">bool               _is_set.type</text>
      <ellipse
         cx="18"
         cy="545.4297"
         fill="none"
         rx="3"
         ry="3"
         style="stroke:#038048;stroke-width:1.0;"
         id="ellipse73" />
      <text
         fill="#000000"
         font-family="Cousine"
         font-size="14"
         lengthAdjust="spacing"
         textLength="361"
         x="27"
         y="548.7764"
         id="text75">bool               _is_set.alt_type // oneway void, string</text>
      <ellipse
         cx="18"
         cy="561.7266"
         fill="none"
         rx="3"
         ry="3"
         style="stroke:#038048;stroke-width:1.0;"
         id="ellipse77" />
      <text
         fill="#000000"
         font-family="Cousine"
         font-size="14"
         lengthAdjust="spacing"
         textLength="179"
         x="27"
         y="565.0732"
         id="text79">thrift_type_enum_t type</text>
      <ellipse
         cx="18"
         cy="578.0234"
         fill="none"
         rx="3"
         ry="3"
         style="stroke:#038048;stroke-width:1.0;"
         id="ellipse81" />
      <text
         fill="#000000"
         font-family="Cousine"
         font-size="14"
         lengthAdjust="spacing"
         textLength="175"
         x="27"
         y="581.3701"
         id="text83">string             type_name</text>
      <ellipse
         cx="18"
         cy="594.3203"
         fill="none"
         rx="3"
         ry="3"
         style="stroke:#038048;stroke-width:1.0;"
         id="ellipse85" />
      <text
         fill="#000000"
         font-family="Cousine"
         font-size="14"
         lengthAdjust="spacing"
         textLength="206"
         x="27"
         y="597.667"
         id="text87">tip_field_t        key       // map</text>
      <ellipse
         cx="18"
         cy="610.6172"
         fill="none"
         rx="3"
         ry="3"
         style="stroke:#038048;stroke-width:1.0;"
         id="ellipse89" />
      <text
         fill="#000000"
         font-family="Cousine"
         font-size="14"
         lengthAdjust="spacing"
         textLength="273"
         x="27"
         y="613.9639"
         id="text91">tip_field_t        value     // all containers</text>
      <ellipse
         cx="18"
         cy="626.9141"
         fill="none"
         rx="3"
         ry="3"
         style="stroke:#038048;stroke-width:1.0;"
         id="ellipse93" />
      <text
         fill="#000000"
         font-family="Cousine"
         font-size="14"
         lengthAdjust="spacing"
         textLength="263"
         x="27"
         y="630.2607"
         id="text95">int64_t            max_depth // typedefs</text>
      <line
         style="stroke:#181818;stroke-width:0.5;"
         x1="8"
         x2="393"
         y1="637.5625"
         y2="637.5625"
         id="line97" />
    </g>
    <!--class tip_enum_t-->
    <g
       id="elem_tip_enum_t">
      <rect
         codeLine="29"
         fill="#F1F1F1"
         height="80.5938"
         id="tip_enum_t"
         rx="2.5"
         ry="2.5"
         style="stroke:#181818;stroke-width:0.5;"
         width="210"
         x="552.5"
         y="237" />
      <ellipse
         cx="612.25"
         cy="253"
         fill="#ADD1B2"
         style="stroke:#181818;stroke-width:1.0;"
         id="ellipse101"
         ry="11"
         rx="11" />
      <path
         d="M614.5938,248.6719 C613.6563,248.2344 613.0625,248.0938 612.1875,248.0938 C609.5625,248.0938 607.5625,250.1719 607.5625,252.8906 L607.5625,254.0156 C607.5625,256.5938 609.6719,258.4844 612.5625,258.4844 C613.7813,258.4844 614.9375,258.1875 615.6875,257.6406 C616.2656,257.2344 616.5938,256.7813 616.5938,256.3906 C616.5938,255.9375 616.2031,255.5469 615.7344,255.5469 C615.5156,255.5469 615.3125,255.625 615.125,255.8125 C614.6719,256.2969 614.6719,256.2969 614.4844,256.3906 C614.0625,256.6563 613.375,256.7813 612.6094,256.7813 C610.5625,256.7813 609.2656,255.6875 609.2656,253.9844 L609.2656,252.8906 C609.2656,251.1094 610.5156,249.7969 612.25,249.7969 C612.8281,249.7969 613.4375,249.9531 613.9063,250.2031 C614.3906,250.4844 614.5625,250.7031 614.6563,251.1094 C614.7188,251.5156 614.75,251.6406 614.8906,251.7656 C615.0313,251.9063 615.2656,252.0156 615.4844,252.0156 C615.75,252.0156 616.0156,251.875 616.1875,251.6563 C616.2969,251.5 616.3281,251.3125 616.3281,250.8906 L616.3281,249.4688 C616.3281,249.0313 616.3125,248.9063 616.2188,248.75 C616.0625,248.4844 615.7813,248.3438 615.4844,248.3438 C615.1875,248.3438 614.9844,248.4375 614.7656,248.75 L614.5938,248.6719 Z "
         fill="#000000"
         id="path103" />
      <text
         fill="#000000"
         font-family="Cousine"
         font-size="14"
         lengthAdjust="spacing"
         textLength="82"
         x="632.75"
         y="257.8467"
         id="text105">tip_enum_t</text>
      <line
         style="stroke:#181818;stroke-width:0.5;"
         x1="553.5"
         x2="761.5"
         y1="269"
         y2="269"
         id="line107" />
      <ellipse
         cx="563.5"
         cy="282.6484"
         fill="none"
         style="stroke:#038048;stroke-width:1.0;"
         id="ellipse109"
         ry="3"
         rx="3" />
      <text
         fill="#000000"
         font-family="Cousine"
         font-size="14"
         lengthAdjust="spacing"
         textLength="166"
         x="572.5"
         y="285.9951"
         id="text111">hf_data_t           hf_data</text>
      <ellipse
         cx="563.5"
         cy="298.9453"
         fill="none"
         style="stroke:#038048;stroke-width:1.0;"
         id="ellipse113"
         ry="3"
         rx="3" />
      <text
         fill="#000000"
         font-family="Cousine"
         font-size="14"
         lengthAdjust="spacing"
         textLength="184"
         x="572.5"
         y="302.292"
         id="text115">tip_const_value_t[] values</text>
      <line
         style="stroke:#181818;stroke-width:0.5;"
         x1="553.5"
         x2="761.5"
         y1="309.5938"
         y2="309.5938"
         id="line117" />
    </g>
    <!--class thrift_type_enum_t-->
    <g
       id="elem_thrift_type_enum_t">
      <rect
         codeLine="34"
         fill="#F1F1F1"
         height="64.2969"
         id="thrift_type_enum_t"
         rx="2.5"
         ry="2.5"
         style="stroke:#181818;stroke-width:0.5;"
         width="173"
         x="114"
         y="706" />
      <ellipse
         cx="129"
         cy="722"
         fill="#EB937F"
         rx="11"
         ry="11"
         style="stroke:#181818;stroke-width:1.0;"
         id="ellipse121" />
      <path
         d="M127.7969,722.875 L129.25,722.875 L129.25,722.9844 C129.25,723.3906 129.2813,723.5469 129.3594,723.7031 C129.5156,723.9531 129.7969,724.1094 130.0938,724.1094 C130.3438,724.1094 130.6094,723.9688 130.7656,723.75 C130.8906,723.5938 130.9219,723.4375 130.9219,722.9844 L130.9219,721.0625 C130.9219,720.9063 130.9219,720.8594 130.9063,720.7031 C130.8438,720.2344 130.5313,719.9219 130.0781,719.9219 C129.8281,719.9219 129.5625,720.0625 129.3906,720.2813 C129.2813,720.4531 129.25,720.6094 129.25,721.0625 L129.25,721.1875 L127.7969,721.1875 L127.7969,718.7813 L131.7813,718.7813 L131.7813,719.6406 C131.7813,720.0469 131.8125,720.2188 131.8906,720.375 C132.0625,720.625 132.3438,720.7813 132.625,720.7813 C132.8906,720.7813 133.1563,720.6406 133.3281,720.4219 C133.4375,720.25 133.4688,720.1094 133.4688,719.6406 L133.4688,717.0938 L125.8438,717.0938 C125.4063,717.0938 125.2813,717.1094 125.125,717.2031 C124.875,717.3594 124.7188,717.6563 124.7188,717.9375 C124.7188,718.2188 124.8594,718.4688 125.0781,718.6406 C125.2344,718.75 125.4219,718.7813 125.8438,718.7813 L126.0938,718.7813 L126.0938,725.2969 L125.8438,725.2969 C125.4375,725.2969 125.2813,725.3125 125.125,725.4219 C124.875,725.5938 124.7188,725.8594 124.7188,726.1563 C124.7188,726.4219 124.8594,726.6719 125.0781,726.8281 C125.2188,726.9531 125.4531,727 125.8438,727 L133.8438,727 L133.8438,724.4219 C133.8438,723.9844 133.8125,723.8438 133.7344,723.6875 C133.5625,723.4375 133.2813,723.2813 133,723.2813 C132.7344,723.2813 132.4688,723.3906 132.2969,723.6406 C132.1875,723.7969 132.1563,723.9375 132.1563,724.4219 L132.1563,725.2969 L127.7969,725.2969 L127.7969,722.875 Z "
         fill="#000000"
         id="path123" />
      <text
         fill="#000000"
         font-family="Cousine"
         font-size="14"
         lengthAdjust="spacing"
         textLength="141"
         x="143"
         y="726.8467"
         id="text125">thrift_type_enum_t</text>
      <line
         style="stroke:#181818;stroke-width:0.5;"
         x1="115"
         x2="286"
         y1="738"
         y2="738"
         id="line127" />
      <text
         fill="#000000"
         font-family="Cousine"
         font-size="14"
         lengthAdjust="spacing"
         textLength="107"
         x="120"
         y="754.9951"
         id="text129">DE_THRIFT_T_*</text>
      <line
         style="stroke:#181818;stroke-width:0.5;"
         x1="115"
         x2="286"
         y1="762.2969"
         y2="762.2969"
         id="line131" />
    </g>
    <!--class tip_struct_t-->
    <g
       id="elem_tip_struct_t">
      <rect
         codeLine="38"
         fill="#F1F1F1"
         height="96.8906"
         id="tip_struct_t"
         rx="2.5"
         ry="2.5"
         style="stroke:#181818;stroke-width:0.5;"
         width="191"
         x="105"
         y="229" />
      <ellipse
         cx="153.75"
         cy="245"
         fill="#ADD1B2"
         rx="11"
         ry="11"
         style="stroke:#181818;stroke-width:1.0;"
         id="ellipse135" />
      <path
         d="M156.0938,240.6719 C155.1563,240.2344 154.5625,240.0938 153.6875,240.0938 C151.0625,240.0938 149.0625,242.1719 149.0625,244.8906 L149.0625,246.0156 C149.0625,248.5938 151.1719,250.4844 154.0625,250.4844 C155.2813,250.4844 156.4375,250.1875 157.1875,249.6406 C157.7656,249.2344 158.0938,248.7813 158.0938,248.3906 C158.0938,247.9375 157.7031,247.5469 157.2344,247.5469 C157.0156,247.5469 156.8125,247.625 156.625,247.8125 C156.1719,248.2969 156.1719,248.2969 155.9844,248.3906 C155.5625,248.6563 154.875,248.7813 154.1094,248.7813 C152.0625,248.7813 150.7656,247.6875 150.7656,245.9844 L150.7656,244.8906 C150.7656,243.1094 152.0156,241.7969 153.75,241.7969 C154.3281,241.7969 154.9375,241.9531 155.4063,242.2031 C155.8906,242.4844 156.0625,242.7031 156.1563,243.1094 C156.2188,243.5156 156.25,243.6406 156.3906,243.7656 C156.5313,243.9063 156.7656,244.0156 156.9844,244.0156 C157.25,244.0156 157.5156,243.875 157.6875,243.6563 C157.7969,243.5 157.8281,243.3125 157.8281,242.8906 L157.8281,241.4688 C157.8281,241.0313 157.8125,240.9063 157.7188,240.75 C157.5625,240.4844 157.2813,240.3438 156.9844,240.3438 C156.6875,240.3438 156.4844,240.4375 156.2656,240.75 L156.0938,240.6719 Z "
         fill="#000000"
         id="path137" />
      <text
         fill="#000000"
         font-family="Cousine"
         font-size="14"
         lengthAdjust="spacing"
         textLength="85"
         x="174.25"
         y="249.8467"
         id="text139">tip_struct_t</text>
      <line
         style="stroke:#181818;stroke-width:0.5;"
         x1="106"
         x2="295"
         y1="261"
         y2="261"
         id="line141" />
      <ellipse
         cx="116"
         cy="274.6484"
         fill="none"
         rx="3"
         ry="3"
         style="stroke:#038048;stroke-width:1.0;"
         id="ellipse143" />
      <text
         fill="#000000"
         font-family="Cousine"
         font-size="14"
         lengthAdjust="spacing"
         textLength="147"
         x="125"
         y="277.9951"
         id="text145">hf_data_t     hf_data;</text>
      <ellipse
         cx="116"
         cy="290.9453"
         fill="none"
         rx="3"
         ry="3"
         style="stroke:#038048;stroke-width:1.0;"
         id="ellipse147" />
      <text
         fill="#000000"
         font-family="Cousine"
         font-size="14"
         lengthAdjust="spacing"
         textLength="127"
         x="125"
         y="294.292"
         id="text149">tip_field_t[] fields</text>
      <ellipse
         cx="116"
         cy="307.2422"
         fill="none"
         rx="3"
         ry="3"
         style="stroke:#038048;stroke-width:1.0;"
         id="ellipse151" />
      <text
         fill="#000000"
         font-family="Cousine"
         font-size="14"
         lengthAdjust="spacing"
         textLength="165"
         x="125"
         y="310.5889"
         id="text153">int64_t       max_depth;</text>
      <line
         style="stroke:#181818;stroke-width:0.5;"
         x1="106"
         x2="295"
         y1="317.8906"
         y2="317.8906"
         id="line155" />
    </g>
    <!--class tip_function_t-->
    <g
       id="elem_tip_function_t">
      <rect
         codeLine="44"
         fill="#F1F1F1"
         height="129.4844"
         id="tip_function_t"
         rx="2.5"
         ry="2.5"
         style="stroke:#181818;stroke-width:0.5;"
         width="186"
         x="331.5"
         y="213" />
      <ellipse
         cx="369.9"
         cy="229"
         fill="#ADD1B2"
         rx="11"
         ry="11"
         style="stroke:#181818;stroke-width:1.0;"
         id="ellipse159" />
      <path
         d="M372.2438,224.6719 C371.3063,224.2344 370.7125,224.0938 369.8375,224.0938 C367.2125,224.0938 365.2125,226.1719 365.2125,228.8906 L365.2125,230.0156 C365.2125,232.5938 367.3219,234.4844 370.2125,234.4844 C371.4313,234.4844 372.5875,234.1875 373.3375,233.6406 C373.9156,233.2344 374.2438,232.7813 374.2438,232.3906 C374.2438,231.9375 373.8531,231.5469 373.3844,231.5469 C373.1656,231.5469 372.9625,231.625 372.775,231.8125 C372.3219,232.2969 372.3219,232.2969 372.1344,232.3906 C371.7125,232.6563 371.025,232.7813 370.2594,232.7813 C368.2125,232.7813 366.9156,231.6875 366.9156,229.9844 L366.9156,228.8906 C366.9156,227.1094 368.1656,225.7969 369.9,225.7969 C370.4781,225.7969 371.0875,225.9531 371.5563,226.2031 C372.0406,226.4844 372.2125,226.7031 372.3063,227.1094 C372.3688,227.5156 372.4,227.6406 372.5406,227.7656 C372.6813,227.9063 372.9156,228.0156 373.1344,228.0156 C373.4,228.0156 373.6656,227.875 373.8375,227.6563 C373.9469,227.5 373.9781,227.3125 373.9781,226.8906 L373.9781,225.4688 C373.9781,225.0313 373.9625,224.9063 373.8688,224.75 C373.7125,224.4844 373.4313,224.3438 373.1344,224.3438 C372.8375,224.3438 372.6344,224.4375 372.4156,224.75 L372.2438,224.6719 Z "
         fill="#000000"
         id="path161" />
      <text
         fill="#000000"
         font-family="Cousine"
         font-size="14"
         lengthAdjust="spacing"
         textLength="102"
         x="389.1"
         y="233.8467"
         id="text163">tip_function_t</text>
      <line
         style="stroke:#181818;stroke-width:0.5;"
         x1="332.5"
         x2="516.5"
         y1="245"
         y2="245"
         id="line165" />
      <ellipse
         cx="342.5"
         cy="258.6484"
         fill="none"
         rx="3"
         ry="3"
         style="stroke:#038048;stroke-width:1.0;"
         id="ellipse167" />
      <text
         fill="#000000"
         font-family="Cousine"
         font-size="14"
         lengthAdjust="spacing"
         textLength="142"
         x="351.5"
         y="261.9951"
         id="text169">hf_data_t     hf_data</text>
      <ellipse
         cx="342.5"
         cy="274.9453"
         fill="none"
         rx="3"
         ry="3"
         style="stroke:#038048;stroke-width:1.0;"
         id="ellipse171" />
      <text
         fill="#000000"
         font-family="Cousine"
         font-size="14"
         lengthAdjust="spacing"
         textLength="141"
         x="351.5"
         y="278.292"
         id="text173">tip_field_t[] params</text>
      <ellipse
         cx="342.5"
         cy="291.2422"
         fill="none"
         rx="3"
         ry="3"
         style="stroke:#038048;stroke-width:1.0;"
         id="ellipse175" />
      <text
         fill="#000000"
         font-family="Cousine"
         font-size="14"
         lengthAdjust="spacing"
         textLength="160"
         x="351.5"
         y="294.5889"
         id="text177">int64_t       max_depth</text>
      <ellipse
         cx="342.5"
         cy="307.5391"
         fill="none"
         rx="3"
         ry="3"
         style="stroke:#038048;stroke-width:1.0;"
         id="ellipse179" />
      <text
         fill="#000000"
         font-family="Cousine"
         font-size="14"
         lengthAdjust="spacing"
         textLength="127"
         x="351.5"
         y="310.8857"
         id="text181">tip_field_t   result</text>
      <ellipse
         cx="342.5"
         cy="323.8359"
         fill="none"
         rx="3"
         ry="3"
         style="stroke:#038048;stroke-width:1.0;"
         id="ellipse183" />
      <text
         fill="#000000"
         font-family="Cousine"
         font-size="14"
         lengthAdjust="spacing"
         textLength="142"
         x="351.5"
         y="327.1826"
         id="text185">tip_field_t[] throws;</text>
      <line
         style="stroke:#181818;stroke-width:0.5;"
         x1="332.5"
         x2="516.5"
         y1="334.4844"
         y2="334.4844"
         id="line187" />
    </g>
    <!--class tip_const_value_t-->
    <g
       id="elem_tip_const_value_t">
      <rect
         codeLine="52"
         fill="#F1F1F1"
         height="96.8906"
         id="tip_const_value_t"
         rx="2.5"
         ry="2.5"
         style="stroke:#181818;stroke-width:0.5;"
         width="158"
         x="578.5"
         y="475.5" />
      <ellipse
         cx="593.5"
         cy="491.5"
         fill="#ADD1B2"
         style="stroke:#181818;stroke-width:1.0;"
         id="ellipse191"
         ry="11"
         rx="11" />
      <path
         d="M595.8438,487.1719 C594.9063,486.7344 594.3125,486.5938 593.4375,486.5938 C590.8125,486.5938 588.8125,488.6719 588.8125,491.3906 L588.8125,492.5156 C588.8125,495.0938 590.9219,496.9844 593.8125,496.9844 C595.0313,496.9844 596.1875,496.6875 596.9375,496.1406 C597.5156,495.7344 597.8438,495.2813 597.8438,494.8906 C597.8438,494.4375 597.4531,494.0469 596.9844,494.0469 C596.7656,494.0469 596.5625,494.125 596.375,494.3125 C595.9219,494.7969 595.9219,494.7969 595.7344,494.8906 C595.3125,495.1563 594.625,495.2813 593.8594,495.2813 C591.8125,495.2813 590.5156,494.1875 590.5156,492.4844 L590.5156,491.3906 C590.5156,489.6094 591.7656,488.2969 593.5,488.2969 C594.0781,488.2969 594.6875,488.4531 595.1563,488.7031 C595.6406,488.9844 595.8125,489.2031 595.9063,489.6094 C595.9688,490.0156 596,490.1406 596.1406,490.2656 C596.2813,490.4063 596.5156,490.5156 596.7344,490.5156 C597,490.5156 597.2656,490.375 597.4375,490.1563 C597.5469,490 597.5781,489.8125 597.5781,489.3906 L597.5781,487.9688 C597.5781,487.5313 597.5625,487.4063 597.4688,487.25 C597.3125,486.9844 597.0313,486.8438 596.7344,486.8438 C596.4375,486.8438 596.2344,486.9375 596.0156,487.25 L595.8438,487.1719 Z "
         fill="#000000"
         id="path193" />
      <text
         fill="#000000"
         font-family="Cousine"
         font-size="14"
         lengthAdjust="spacing"
         textLength="126"
         x="607.5"
         y="496.3467"
         id="text195">tip_const_value_t</text>
      <line
         style="stroke:#181818;stroke-width:0.5;"
         x1="579.5"
         x2="735.5"
         y1="507.5"
         y2="507.5"
         id="line197" />
      <ellipse
         cx="589.5"
         cy="521.1484"
         fill="none"
         style="stroke:#038048;stroke-width:1.0;"
         id="ellipse199"
         ry="3"
         rx="3" />
      <text
         fill="#000000"
         font-family="Cousine"
         font-size="14"
         lengthAdjust="spacing"
         textLength="126"
         x="598.5"
         y="524.4951"
         id="text201">hf_data_t hf_data</text>
      <ellipse
         cx="589.5"
         cy="537.4453"
         fill="none"
         style="stroke:#038048;stroke-width:1.0;"
         id="ellipse203"
         ry="3"
         rx="3" />
      <text
         fill="#000000"
         font-family="Cousine"
         font-size="14"
         lengthAdjust="spacing"
         textLength="111"
         x="598.5"
         y="540.792"
         id="text205">bool      implicit</text>
      <ellipse
         cx="589.5"
         cy="553.7422"
         fill="none"
         style="stroke:#038048;stroke-width:1.0;"
         id="ellipse207"
         ry="3"
         rx="3" />
      <text
         fill="#000000"
         font-family="Cousine"
         font-size="14"
         lengthAdjust="spacing"
         textLength="127"
         x="598.5"
         y="557.0889"
         id="text209">int32_t   int_value</text>
      <line
         style="stroke:#181818;stroke-width:0.5;"
         x1="579.5"
         x2="735.5"
         y1="564.3906"
         y2="564.3906"
         id="line211" />
    </g>
    <!--class hf_data_t-->
    <g
       id="elem_hf_data_t"
       transform="translate(159.52595,607.80277)">
      <rect
         codeLine="58"
         fill="#f0f8ff"
         height="129.48441"
         id="hf_data_t"
         rx="2.5"
         ry="2.5"
         style="stroke:#181818;stroke-width:0.5"
         width="161"
         x="403"
         y="15.5" />
      <circle
         cx="445.45001"
         cy="31.5"
         fill="#add1b2"
         style="stroke:#181818;stroke-width:1"
         id="ellipse215"
         r="11" />
      <path
         d="m 447.7938,27.1719 c -0.9375,-0.4375 -1.5313,-0.5781 -2.4063,-0.5781 -2.625,0 -4.625,2.0781 -4.625,4.7968 v 1.125 c 0,2.5782 2.1094,4.4688 5,4.4688 1.2188,0 2.375,-0.2969 3.125,-0.8438 0.5781,-0.4062 0.9063,-0.8593 0.9063,-1.25 0,-0.4531 -0.3907,-0.8437 -0.8594,-0.8437 -0.2188,0 -0.4219,0.0781 -0.6094,0.2656 -0.4531,0.4844 -0.4531,0.4844 -0.6406,0.5781 -0.4219,0.2657 -1.1094,0.3907 -1.875,0.3907 -2.0469,0 -3.3438,-1.0938 -3.3438,-2.7969 v -1.0938 c 0,-1.7812 1.25,-3.0937 2.9844,-3.0937 0.5781,0 1.1875,0.1562 1.6563,0.4062 0.4843,0.2813 0.6562,0.5 0.75,0.9063 0.0625,0.4062 0.0937,0.5312 0.2343,0.6562 0.1407,0.1407 0.375,0.25 0.5938,0.25 0.2656,0 0.5312,-0.1406 0.7031,-0.3593 0.1094,-0.1563 0.1406,-0.3438 0.1406,-0.7657 v -1.4218 c 0,-0.4375 -0.0156,-0.5625 -0.1093,-0.7188 -0.1563,-0.2656 -0.4375,-0.4062 -0.7344,-0.4062 -0.2969,0 -0.5,0.0937 -0.7188,0.4062 z"
         fill="#000000"
         id="path217" />
      <text
         fill="#000000"
         font-family="Cousine"
         font-size="14px"
         lengthAdjust="spacing"
         textLength="68"
         x="465.54999"
         y="36.346699"
         id="text219">hf_data_t</text>
      <line
         style="stroke:#181818;stroke-width:0.5"
         x1="404"
         x2="563"
         y1="47.5"
         y2="47.5"
         id="line221" />
      <circle
         cx="414"
         cy="61.148399"
         fill="none"
         style="stroke:#038048;stroke-width:1"
         id="ellipse223"
         r="3" />
      <text
         fill="#000000"
         font-family="Cousine"
         font-size="14px"
         lengthAdjust="spacing"
         textLength="116"
         x="423"
         y="64.495102"
         id="text225">string file_name</text>
      <circle
         cx="414"
         cy="77.445297"
         fill="none"
         style="stroke:#038048;stroke-width:1"
         id="ellipse227"
         r="3" />
      <text
         fill="#000000"
         font-family="Cousine"
         font-size="14px"
         lengthAdjust="spacing"
         textLength="135"
         x="423"
         y="80.792"
         id="text229">string name_space</text>
      <circle
         cx="414"
         cy="93.742203"
         fill="none"
         style="stroke:#038048;stroke-width:1"
         id="ellipse231"
         r="3" />
      <text
         fill="#000000"
         font-family="Cousine"
         font-size="14px"
         lengthAdjust="spacing"
         textLength="113"
         x="423"
         y="97.088898"
         id="text233">string identifier</text>
      <circle
         cx="414"
         cy="110.0391"
         fill="none"
         style="stroke:#038048;stroke-width:1"
         id="ellipse235"
         r="3" />
      <text
         fill="#000000"
         font-family="Cousine"
         font-size="14px"
         lengthAdjust="spacing"
         textLength="95"
         x="423"
         y="113.3857"
         id="text237">bool is_used</text>
      <circle
         cx="414"
         cy="126.3359"
         fill="none"
         style="stroke:#038048;stroke-width:1"
         id="ellipse239"
         r="3" />
      <text
         fill="#000000"
         font-family="Cousine"
         font-size="14px"
         lengthAdjust="spacing"
         textLength="134"
         x="423"
         y="129.6826"
         id="text241">bool is_contained</text>
      <line
         style="stroke:#181818;stroke-width:0.5"
         x1="404"
         x2="563"
         y1="136.98441"
         y2="136.98441"
         id="line243" />
    </g>
    <!--reverse link tip_enum_t to tip_const_value_t-->
    <g
       id="link_tip_enum_t_tip_const_value_t">
      <path
         codeLine="74"
         d="M657.5,331.292 C657.5,374.034 657.5,433.73 657.5,475.104 "
         fill="none"
         id="tip_enum_t-backto-tip_const_value_t"
         style="stroke:#181818;stroke-width:1.0;" />
      <polygon
         fill="none"
         points="657.5,318.055,653.5,324.055,657.5,330.055,661.5,324.055,657.5,318.055"
         style="stroke:#181818;stroke-width:1.0;"
         id="polygon247" />
    </g>
    <!--reverse link tip_struct_t to tip_field_t-->
    <g
       id="link_tip_struct_t_tip_field_t">
      <path
         codeLine="75"
         d="M200.5,339.278 C200.5,358.352 200.5,380.125 200.5,401.851 "
         fill="none"
         id="tip_struct_t-backto-tip_field_t"
         style="stroke:#181818;stroke-width:1.0;" />
      <polygon
         fill="none"
         points="200.5,326.222,196.5,332.222,200.5,338.222,204.5,332.222,200.5,326.222"
         style="stroke:#181818;stroke-width:1.0;"
         id="polygon251" />
    </g>
    <!--reverse link tip_field_t to tip_field_t-->
    <g
       id="link_tip_field_t_tip_field_t">
      <path
         codeLine="76"
         d="M407.409,509.739 C420.863,513.064 429,517.817 429,524 C429,531.994 415.397,537.599 394.288,540.815 "
         fill="none"
         id="tip_field_t-backto-tip_field_t"
         style="stroke:#181818;stroke-width:1.0;" />
      <polygon
         fill="#181818"
         points="394.288,507.185,399.413,512.2579,406.0668,509.4783,400.9418,504.4054,394.288,507.185"
         style="stroke:#181818;stroke-width:1.0;"
         id="polygon255" />
    </g>
    <!--reverse link tip_field_t to tip_field_t-->
    <g
       id="g261">
      <path
         codeLine="77"
         d="M407.007,486.863 C440.782,492.171 464,504.55 464,524 C464,545.839 434.729,558.763 394.109,562.773 "
         fill="none"
         id="tip_field_t-backto-tip_field_t-1"
         style="stroke:#181818;stroke-width:1.0;" />
      <polygon
         fill="#181818"
         points="394.109,485.227,399.558,489.9501,406.0136,486.7368,400.5646,482.0137,394.109,485.227"
         style="stroke:#181818;stroke-width:1.0;"
         id="polygon259" />
    </g>
    <!--reverse link tip_field_t to thrift_type_enum_t-->
    <g
       id="link_tip_field_t_thrift_type_enum_t">
      <path
         codeLine="78"
         d="M200.5,659.226 C200.5,676.4917 200.5,692.6801 200.5,705.7694 "
         fill="none"
         id="tip_field_t-backto-thrift_type_enum_t"
         style="stroke:#181818;stroke-width:1.0;" />
      <polygon
         fill="#181818"
         points="200.5,646.17,196.5,652.17,200.5,658.17,204.5,652.17,200.5,646.17"
         style="stroke:#181818;stroke-width:1.0;"
         id="polygon264" />
    </g>
    <!--reverse link tip_types_t to tip_field_t-->
    <g
       id="link_tip_types_t_tip_field_t">
      <path
         codeLine="79"
         d="M115.206,163.484 C103.8744,178.803 93.9575,195.527 87.5,213 C67.6252,266.778 71.7079,286.884 87.5,342 C93.3416,362.388 102.2218,382.709 112.489,401.973 "
         fill="none"
         id="tip_types_t-backto-tip_field_t"
         style="stroke:#181818;stroke-width:1.0;" />
      <polygon
         fill="none"
         points="123.252,153.111,116.4139,155.4002,115.897,162.5928,122.7351,160.3036,123.252,153.111"
         style="stroke:#181818;stroke-width:1.0;"
         id="polygon268" />
    </g>
    <!--reverse link tip_types_t to tip_enum_t-->
    <g
       id="link_tip_types_t_tip_enum_t">
      <path
         codeLine="80"
         d="M380.461,151.238 C450.708,178.824 518.368,205.67 534.5,213 C550.581,220.307 567.568,228.652 583.614,236.838 "
         fill="none"
         id="tip_types_t-backto-tip_enum_t"
         style="stroke:#181818;stroke-width:1.0;" />
      <polygon
         fill="none"
         points="368.253,146.446,372.3773,152.3613,379.4238,150.8294,375.2995,144.9141,368.253,146.446"
         style="stroke:#181818;stroke-width:1.0;"
         id="polygon272" />
    </g>
    <!--reverse link tip_types_t to tip_struct_t-->
    <g
       id="link_tip_types_t_tip_struct_t">
      <path
         codeLine="81"
         d="M187.84,166.432 C187.525,187.843 188.036,210.055 189.375,228.871 "
         fill="none"
         id="tip_types_t-backto-tip_struct_t"
         style="stroke:#181818;stroke-width:1.0;" />
      <polygon
         fill="none"
         points="188.144,153.242,184.0066,159.1481,187.8671,165.2388,192.0045,159.3327,188.144,153.242"
         style="stroke:#181818;stroke-width:1.0;"
         id="polygon276" />
    </g>
    <!--reverse link tip_types_t to tip_struct_t-->
    <g
       id="g282">
      <path
         codeLine="82"
         d="M213.904,166.432 C214.239,187.843 213.697,210.055 212.279,228.871 "
         fill="none"
         id="tip_types_t-backto-tip_struct_t-1"
         style="stroke:#181818;stroke-width:1.0;" />
      <polygon
         fill="none"
         points="213.583,153.242,209.7306,159.3378,213.8758,165.2384,217.7282,159.1426,213.583,153.242"
         style="stroke:#181818;stroke-width:1.0;"
         id="polygon280" />
    </g>
    <!--reverse link tip_types_t to tip_function_t-->
    <g
       id="link_tip_types_t_tip_function_t">
      <path
         codeLine="83"
         d="M293.093,161.812 C312.629,178.863 332.978,196.622 351.662,212.93 "
         fill="none"
         id="tip_types_t-backto-tip_function_t"
         style="stroke:#181818;stroke-width:1.0;" />
      <polygon
         fill="none"
         points="283.273,153.242,285.1631,160.201,292.3137,161.1328,290.4236,154.1739,283.273,153.242"
         style="stroke:#181818;stroke-width:1.0;"
         id="polygon285" />
    </g>
    <!--reverse link tip_function_t to tip_field_t-->
    <g
       id="link_tip_function_t_tip_field_t">
      <path
         codeLine="84"
         d="M357.365,351.779 C342.857,367.615 327.146,384.764 311.462,401.883 "
         fill="none"
         id="tip_function_t-backto-tip_field_t"
         style="stroke:#181818;stroke-width:1.0;" />
      <polygon
         fill="none"
         points="366.231,342.101,359.2286,343.8232,358.1251,350.9494,365.1275,349.2272,366.231,342.101"
         style="stroke:#181818;stroke-width:1.0;"
         id="polygon289" />
    </g>
    <!--SRC=[fLLBRzim3BxdLn3OeK3N9jW3lNJOPLknNZPWo6qO1CLcQgsoP5Xocw3OVn_ry5jnW4qdcVn4KXy_qUPHg8hNl8GSzxoHzauh-usN29zqOuJ2rMfp0Tztlp6p1YusgrKckJ5WHSNiiKB3BBoiWDPhOskX7dx-WjdAT5bgnGB0t0PuoQiFmNBbe-q5ofpPZm0kBgDoX19MQ7Ng0Agcz7XmEwpv4fZsJMOTFEoQ6iz3yP1XDOpgwsnKvcpC3g_QMWdvPyXHl5NBqKvhEI672SCCshN8KLb1-3f0YptBkULqjblH5FmFBXPoDGXLSaL-NH_F9rCv7W9AAFlcPfW5OE1TYE7QT1R4fVKwWSq6jC9dVeGdBV8h28n7MejQx0CkTXNwu04u2kw1YaGww4haEQv7FCOTvQK6dmG-STbW2-HIabQLvQJxsdJqtBmVqrFo0ycpieKxuseXhPfns-CjNawsSjnBTuGI6yjyFLvQVkV3kc2Gu2X4__o5RR_-kB_RiYsx75VHAZbTH_owdN53oVqkoK1t-QdGksUnc2sLpC-VvMIf_j4BfdcL2aXSwUVfInpnEwznL5ylQ55MKcJ2TjMzU-kJqox4wfCCxlkAqo7SEMcDXYFnAeVAZLPdOARYsTWydGYnAdfPZS5yQck5cxkAQ6RVgm9hORdAaAYIOJeMeg8f3ZJ6rtDEBg-lOTtT8Y1QkbE-ACEKgrDUCcOlbOcR_Y_3oDfvPtLECdIWM6gYxl_opjvT0BK_ltJwcNVnQ7kNVtFtTCxedHRt5m00]-->
  </g>
</svg>
